# Energy in atomic unit (1 Eh = 2625.499640 kJ/mol)
# -------------------------------------------------
# step         Hamiltonian             Kinetic energy          Potential energy          Coulomb energy       van_der_Waals energy       Fumi-Tosi energy     Fumi-Tosi molecule energy       Piston work
      0  -1.382049957653530E+002   8.914974225043002E+000  -1.471199699903960E+002  -1.664964702110290E+002   1.937650022063295E+001   1.937650022063295E+001   0.000000000000000E+000   0.000000000000000E+000
      1  -1.382053556348843E+002   9.100605835141154E+000  -1.473061180765438E+002  -1.665725850549095E+002   1.926646697836570E+001   1.926646697836570E+001   0.000000000000000E+000   1.341332518706369E-009
