# Energy in atomic unit (1 Eh = 2625.499640 kJ/mol)
# -------------------------------------------------
# step         Hamiltonian             Total energy           Kinetic energy         Potential energy       Thermostat energy      External field energy
       0 -1.386154410884337E+002 -1.386154410884337E+002  1.037248627786049E+001 -1.489879273662942E+002  0.000000000000000E+000  0.000000000000000E+000
       1 -1.386154065277566E+002 -1.386154065277566E+002  1.046514676494755E+001 -1.490805532927041E+002  0.000000000000000E+000  0.000000000000000E+000
