# Energy in atomic unit (1 Eh = 2625.499640 kJ/mol)
# -------------------------------------------------
# step        Hamiltonian             Total energy           Kinetic energy         Potential energy       Thermostat energy      External field energy 
       0 -1.393809387775313E+002 -1.393804462723191E+002  6.470389475914654E+000 -1.458508357482337E+002 -4.925052122201363E-004  0.000000000000000E+000
       1 -1.393808112330420E+002 -1.393800124158444E+002  6.464077084837506E+000 -1.458440895006819E+002 -7.988171975845909E-004  0.000000000000000E+000
       2 -1.393808342248151E+002 -1.393796451192516E+002  6.498508617068169E+000 -1.458781537363198E+002 -1.189105563516139E-003  0.000000000000000E+000
       3 -1.393807339528896E+002 -1.393790716040902E+002  6.571478385977019E+000 -1.459505499900672E+002 -1.662348799429245E-003  0.000000000000000E+000
       4 -1.393807429950638E+002 -1.393785291933984E+002  6.681347788784714E+000 -1.460598769821831E+002 -2.213801665457512E-003  0.000000000000000E+000
       5 -1.393808115873943E+002 -1.393779769822314E+002  6.826246093165729E+000 -1.462042230753971E+002 -2.834605162974847E-003  0.000000000000000E+000
