# Energy in atomic unit (1 Eh = 2625.499640 kJ/mol)
# -------------------------------------------------
# step         Total energy           Kinetic energy         Potential energy         Coulomb energy        van_der_Waals energy       Coulomb LR energy      Coulomb keq0 energy      Coulomb SR energy      Coulomb self energy   Coulomb molecule energy      Fumi-Tosi energy    Fumi-Tosi molecule ener  
       0 -6.346543523465865E+001  3.525810919198016E+000 -6.699124615385666E+001 -7.716941216037861E+001   1.017816600652194E+001   1.008951576443659E-001  0.000000000000000E+000 -4.377953797376275E+001 -3.349076934426024E+001  0.000000000000000E+000   1.017816600652194E+001  0.000000000000000E+000
