ITEM: TIMESTEP
0
ITEM: NUMBER OF ATOMS
3
ITEM: BOX BOUNDS pp pp ff
-1.0000000000000000e+02 1.0000000000000000e+02
-1.0000000000000000e+02 1.0000000000000000e+02
-2.0000000000000000e+02 2.0000000000000000e+02
ITEM: ATOMS id element x y z fx fy fz 
1 CAB                    0                    0                    0 4.92865164189458e-19 -3.38078693524451e-18     3.65367602944316 
2 CG                    0                    0                -13.5 -6.30724097673645e-19 1.26737103465918e-18    -1.36140589448454 
3 CG                    0                    0                 13.5 -5.68598959401064e-18 -3.02510552641835e-18     -2.2922701349593 
